A Beginnerâ€™s Guide to R and RStudio
…
And this time, the colon still tells us that we want from rows 1 â€œtoâ€ 3, and by leaving the space after the comma empty, we are saying we want all of the columns.

By counting down the rows, we know that the errant data point is in row 9.

For the purposes of this tutorial, letâ€™s omit that data point, using a method from here.

We can view a table that includes all of the data except for row nine by the following code:

mussel.data[-9,]

## # A tibble: 307 x 5
##    Stream                   NewLong NewLat Western_Pearlshell Western_Ridged
##    <chr>                      <dbl>  <dbl> <chr>              <chr>         
##  1 American River             -115.   45.8 <NA>               <NA>          
##  2 Big Creek                  -115.   45.1 <NA>               <NA>          
##  3 Fish Lake Creek            -115.   46.5 <NA>               <NA>          
##  4 Lick Creek                 -116.   45.1 <NA>               <NA>          
##  5 Lick Creek                 -116.   45.1 <NA>               <NA>          
##  6 Lochsa River               -115.   46.5 <NA>               <NA>          
##  7 Potlatch River             -116.   46.8 <NA>               <NA>          
##  8 South Fork Salmon River    -116.   44.5 <NA>               <NA>          
##  9 East Fork Potlatch River   -116.   46.9 <NA>               10-100        
## 10 South Fork Salmon River    -116.   44.6 <NA>               10-100        
## # ... with 297 more rows

What this does is it says I want everything from the mussel.data dataframe, except for row 9. This just displays the dataframe without row nine, it does not actually change mussel.data. But, we can use this to create a new dataframe that does not have row nine.

no9mussel.data<-mussel.data[-9,]
no9mussel.data

## # A tibble: 307 x 5
##    Stream                   NewLong NewLat Western_Pearlshell Western_Ridged
##    <chr>                      <dbl>  <dbl> <chr>              <chr>         
##  1 American River             -115.   45.8 <NA>               <NA>          
##  2 Big Creek                  -115.   45.1 <NA>               <NA>          
##  3 Fish Lake Creek            -115.   46.5 <NA>               <NA>          
##  4 Lick Creek                 -116.   45.1 <NA>               <NA>          
##  5 Lick Creek                 -116.   45.1 <NA>               <NA>          
##  6 Lochsa River               -115.   46.5 <NA>               <NA>          
##  7 Potlatch River             -116.   46.8 <NA>               <NA>          
##  8 South Fork Salmon River    -116.   44.5 <NA>               <NA>          
##  9 East Fork Potlatch River   -116.   46.9 <NA>               10-100        
## 10 South Fork Salmon River    -116.   44.6 <NA>               10-100        
## # ... with 297 more rows
…
